na
7
81
87755
781
477
454
47
-475
46
75
4754
78
5
789
-824
751
76521
8775
7778
5478
5
-4
-578
-548
-78
-7885
-775
-78565
-754
-45
-4478
-7785
-478
-7787
-74798
-7894
